<?xml version="1.0" encoding="utf-8"?>
<!-- Generator: Adobe Illustrator 26.0.3, SVG Export Plug-In . SVG Version: 6.00 Build 0)  -->
<svg version="1.1" id="Layer_1" xmlns="http://www.w3.org/2000/svg" xmlns:xlink="http://www.w3.org/1999/xlink" x="0px" y="0px"
	 viewBox="0 0 50 50" style="enable-background:new 0 0 50 50;" xml:space="preserve">
<style type="text/css">
	.st0{fill:#FFFFFF;stroke:#1C75BC;stroke-width:0.5;stroke-linecap:round;stroke-linejoin:round;stroke-miterlimit:10;}
	.st1{fill:#1C75BC;stroke:#1C75BC;stroke-width:0.5;stroke-linecap:round;stroke-linejoin:round;stroke-miterlimit:10;}
	.st2{fill:none;stroke:#1C75BC;stroke-width:0.5;stroke-linecap:round;stroke-linejoin:round;stroke-miterlimit:10;}
	.st3{fill:#FFFFFF;}
	.st4{fill:#1C75BC;}
</style>
<g>
	<rect x="12.32" y="9.89" class="st0" width="2.1" height="33.45"/>
	<rect x="12.32" y="9.89" class="st1" width="1.34" height="33.45"/>
	<path class="st0" d="M14.41,18.4C26,17.38,25.03,8.66,24.44,5.94c-0.1-0.46-0.71-0.65-1.34-0.42c-3.83,1.38-15.73,6.32-9.88,12.52
		C13.48,18.31,13.91,18.45,14.41,18.4z"/>
	<path class="st0" d="M22.97,9.51c-0.09,1.3-0.44,2.73-1.36,3.94c-0.69,0.91-1.64,1.64-2.86,2.18"/>
	<path class="st1" d="M24.58,6.67c-0.04-0.27-0.09-0.52-0.14-0.73c-0.1-0.46-0.71-0.65-1.34-0.42c-1.74,0.63-5.14,1.99-7.79,3.87
		l0,0l0,0c-0.05,0.03-0.1,0.07-0.14,0.1c-0.01,0-0.01,0.01-0.02,0.01c-0.04,0.03-0.08,0.06-0.12,0.09C15.01,9.6,15,9.61,14.99,9.61
		c-0.04,0.03-0.08,0.06-0.11,0.09c-0.01,0.01-0.02,0.02-0.03,0.02c-0.04,0.03-0.07,0.06-0.11,0.08c-0.01,0.01-0.02,0.02-0.03,0.03
		c-0.04,0.03-0.07,0.06-0.11,0.08c-0.01,0.01-0.02,0.02-0.03,0.02c-0.04,0.03-0.07,0.06-0.11,0.09c-0.01,0.01-0.02,0.01-0.03,0.02
		c-0.04,0.03-0.07,0.06-0.11,0.09c-0.01,0.01-0.01,0.01-0.02,0.02c-0.04,0.04-0.09,0.07-0.13,0.11l0,0
		c-0.13,0.11-0.26,0.23-0.39,0.34c-0.01,0-0.01,0.01-0.02,0.01c-0.04,0.03-0.07,0.07-0.1,0.1c-0.01,0.01-0.02,0.02-0.03,0.03
		c-0.03,0.03-0.06,0.06-0.09,0.09c-0.01,0.01-0.02,0.02-0.03,0.03c-0.03,0.03-0.06,0.06-0.08,0.08c-0.01,0.01-0.02,0.02-0.03,0.03
		c-0.03,0.03-0.05,0.05-0.08,0.08c-0.01,0.01-0.02,0.02-0.03,0.04c-0.03,0.03-0.05,0.06-0.08,0.08c-0.01,0.01-0.02,0.02-0.03,0.04
		c-0.03,0.03-0.05,0.06-0.08,0.09c-0.01,0.01-0.02,0.02-0.03,0.03c-0.03,0.03-0.05,0.06-0.08,0.09c-0.01,0.01-0.02,0.02-0.03,0.03
		c-0.03,0.03-0.06,0.07-0.09,0.1c0,0.01-0.01,0.01-0.01,0.02c-0.07,0.08-0.13,0.17-0.19,0.25l0,0c-0.03,0.04-0.06,0.08-0.09,0.12
		c-0.01,0.01-0.01,0.02-0.02,0.03c-0.02,0.03-0.04,0.06-0.07,0.09c-0.01,0.01-0.02,0.03-0.03,0.04c-0.02,0.03-0.04,0.06-0.06,0.09
		c-0.01,0.01-0.02,0.03-0.03,0.04c-0.02,0.03-0.03,0.06-0.05,0.08c-0.01,0.02-0.02,0.03-0.03,0.05c-0.02,0.03-0.03,0.05-0.05,0.08
		c-0.01,0.02-0.02,0.03-0.03,0.05c-0.02,0.03-0.03,0.05-0.05,0.08c-0.01,0.02-0.02,0.03-0.02,0.05c-0.01,0.03-0.03,0.06-0.04,0.08
		c-0.01,0.01-0.02,0.03-0.02,0.04c-0.01,0.03-0.03,0.06-0.04,0.09c-0.01,0.01-0.01,0.03-0.02,0.04c-0.02,0.03-0.03,0.07-0.04,0.1
		c0,0.01-0.01,0.02-0.01,0.03c-0.04,0.09-0.07,0.18-0.1,0.26c0,0.01-0.01,0.02-0.01,0.03c-0.01,0.04-0.02,0.07-0.04,0.11
		c0,0.01-0.01,0.03-0.01,0.04c-0.01,0.03-0.02,0.06-0.03,0.09c0,0.02-0.01,0.03-0.01,0.05c-0.01,0.03-0.02,0.06-0.02,0.08
		c0,0.02-0.01,0.03-0.01,0.05c-0.01,0.03-0.01,0.05-0.02,0.08c0,0.02-0.01,0.04-0.01,0.05c-0.01,0.03-0.01,0.05-0.02,0.08
		c0,0.02-0.01,0.04-0.01,0.06c0,0.03-0.01,0.05-0.01,0.08c0,0.02-0.01,0.04-0.01,0.06c0,0.03-0.01,0.06-0.01,0.08
		c0,0.02,0,0.04-0.01,0.05c0,0.03,0,0.06-0.01,0.09c0,0.02,0,0.03,0,0.05c0,0.03,0,0.06,0,0.1c0,0.01,0,0.03,0,0.04
		c0,0.09,0,0.19,0,0.28c0,0.01,0,0.03,0,0.04c0,0.03,0,0.07,0.01,0.1c0,0.02,0,0.03,0.01,0.05c0,0.03,0.01,0.06,0.01,0.09
		c0,0.02,0.01,0.04,0.01,0.06c0,0.03,0.01,0.06,0.01,0.08c0,0.02,0.01,0.04,0.01,0.06c0.01,0.03,0.01,0.06,0.02,0.08
		c0,0.02,0.01,0.04,0.01,0.06c0.01,0.03,0.01,0.05,0.02,0.08c0.01,0.02,0.01,0.04,0.02,0.06c0.01,0.03,0.02,0.06,0.02,0.08
		c0.01,0.02,0.01,0.04,0.02,0.06c0.01,0.03,0.02,0.06,0.03,0.08c0.01,0.02,0.01,0.04,0.02,0.06c0.01,0.03,0.02,0.06,0.03,0.09
		c0.01,0.02,0.01,0.04,0.02,0.06c0.01,0.03,0.03,0.07,0.04,0.1c0.01,0.02,0.01,0.03,0.02,0.05c0.02,0.05,0.04,0.09,0.06,0.14l0,0
		c0.02,0.05,0.05,0.1,0.07,0.15c0.01,0.02,0.02,0.03,0.02,0.05c0.02,0.03,0.03,0.07,0.05,0.1c0.01,0.02,0.02,0.04,0.03,0.06
		c0.02,0.03,0.03,0.06,0.05,0.09c0.01,0.02,0.02,0.04,0.04,0.06c0.02,0.03,0.03,0.06,0.05,0.09c0.01,0.02,0.03,0.04,0.04,0.06
		c0.02,0.03,0.04,0.06,0.06,0.09c0.01,0.02,0.03,0.04,0.04,0.06c0.02,0.03,0.04,0.06,0.06,0.09c0.02,0.02,0.03,0.04,0.05,0.07
		c0.02,0.03,0.04,0.06,0.06,0.09c0.02,0.02,0.03,0.04,0.05,0.06c0.02,0.03,0.05,0.06,0.07,0.09c0.02,0.02,0.03,0.04,0.05,0.06
		c0.02,0.03,0.05,0.06,0.08,0.09c0.02,0.02,0.03,0.04,0.05,0.06c0.03,0.03,0.06,0.07,0.09,0.1c0.01,0.02,0.03,0.03,0.04,0.05
		c0.05,0.05,0.09,0.1,0.14,0.15c0.02,0.02,0.05,0.05,0.07,0.07c0.01,0.01,0.02,0.02,0.04,0.03c0.01,0.01,0.03,0.02,0.04,0.03
		c0.02,0.01,0.03,0.02,0.05,0.03c0.01,0,0.02,0.01,0.02,0.01c0.05,0.03,0.11,0.06,0.17,0.08c0.26,0.03,0.53,0.05,0.81,0.07
		c0.12,0.01,0.24,0.01,0.36,0c0.04,0,0.08-0.01,0.11-0.01c0.39-0.05,0.72-0.2,0.94-0.44c2.45-2.71,2.17-5.18,0.58-7.29
		c2.65-1.88,6.05-3.24,7.79-3.87C24.33,6.71,24.46,6.68,24.58,6.67z"/>
	<path class="st0" d="M12.35,18.74C-1.32,16.5,0.63,6.23,1.59,3.05c0.16-0.54,0.9-0.71,1.63-0.38c4.42,1.98,18.09,8.9,10.57,15.75
		C13.46,18.72,12.93,18.83,12.35,18.74z"/>
	<path class="st1" d="M4.11,3.07c-0.32-0.15-0.62-0.29-0.89-0.4C2.49,2.34,1.75,2.51,1.59,3.05C0.63,6.23-1.32,16.5,12.35,18.74
		c0.58,0.1,1.11-0.02,1.44-0.32c0.31-0.29,0.59-0.57,0.83-0.86C2.83,15.38,3.23,7,4.11,3.07z"/>
	<line class="st2" x1="9.91" y1="12.06" x2="13.51" y2="16.26"/>
	<path class="st0" d="M44.36,43.2h-5.4c-0.43-1.17-1.52-2.02-2.84-2.11c-0.12-1.58-1.31-2.86-2.87-3.16
		c0.16-0.39,0.24-0.82,0.24-1.27c0-1.94-1.6-3.51-3.58-3.51c-0.17,0-0.35,0.01-0.52,0.04c-0.22-1.73-1.73-3.06-3.55-3.06
		c-1.45,0-2.7,0.84-3.26,2.05c-0.56-1.21-1.81-2.05-3.26-2.05c-1.47,0-2.73,0.87-3.29,2.1c-0.46-0.21-0.98-0.33-1.52-0.33
		c-1.98,0-3.58,1.57-3.58,3.51c0,0.18,0.01,0.36,0.04,0.54c-0.12,0.1-0.23,0.2-0.34,0.3c-1.75,0.23-3.1,1.7-3.1,3.47
		c0,0.19,0.02,0.37,0.04,0.55C7.45,40.51,7.34,40.75,7.24,41C7.16,40.99,7.08,40.99,7,40.99c-1.98,0-3.58,1.57-3.58,3.51
		c0,1.27,0.69,2.38,1.72,2.99h30.17v0.02h9.04c1.21,0,2.2-0.96,2.2-2.15l0,0C46.56,44.16,45.58,43.2,44.36,43.2z"/>
	<path class="st1" d="M5.15,47.48h3.37l0,0c0-1.94,1.6-3.51,3.58-3.51c0.08,0,0.16,0,0.24,0.01c0.1-0.25,0.21-0.49,0.33-0.73
		c-0.03-0.18-0.04-0.36-0.04-0.55c0-1.77,1.35-3.24,3.1-3.47c0.11-0.1,0.23-0.2,0.34-0.3c-0.03-0.18-0.04-0.36-0.04-0.54
		c0-1.94,1.6-3.51,3.58-3.51c0.54,0,1.06,0.12,1.52,0.33c0.55-1.24,1.82-2.1,3.29-2.1c1.45,0,2.7,0.84,3.26,2.05
		c0.48-1.03,1.45-1.79,2.62-2c-0.12-0.01-0.25-0.02-0.38-0.02c-0.17,0-0.35,0.01-0.52,0.04c-0.22-1.73-1.73-3.06-3.55-3.06
		c-1.45,0-2.7,0.84-3.26,2.05c-0.56-1.21-1.81-2.05-3.26-2.05c-1.47,0-2.73,0.87-3.29,2.1c-0.46-0.21-0.98-0.33-1.52-0.33
		c-1.98,0-3.58,1.57-3.58,3.51c0,0.18,0.01,0.36,0.04,0.54c-0.12,0.1-0.23,0.2-0.34,0.3c-1.75,0.23-3.1,1.7-3.1,3.47
		c0,0.19,0.02,0.37,0.04,0.55c-0.12,0.24-0.23,0.48-0.33,0.73c-0.08,0-0.16-0.01-0.24-0.01c-1.98,0-3.58,1.57-3.58,3.51
		C3.44,45.75,4.13,46.86,5.15,47.48z"/>
	<circle class="st1" cx="16.21" cy="42.39" r="1.64"/>
	<circle class="st1" cx="19.73" cy="38.66" r="1.64"/>
</g>
<path class="st3" d="M26.39,28.34v3.25c2.26,0,17.27,0,19.5,0v-3.25l-8.07-10.95v-6.65h-3.36v6.75L26.39,28.34z M29.82,25.01
	l0.55,0.39l-1.68,2.35l-0.55-0.39L29.82,25.01z M41.52,23.18c0,1.52-1.46,3.36-3.36,3.36h-1.68v2.02h8.74v2.35H27.06v-2.35h8.74
	v-2.02h-1.53c-1.91,0-3.52-1.84-3.52-3.36v-0.34h1.96c2.09,0,3.41,1.32,3.41,3.36c0-2.04,1.48-3.36,3.57-3.36h1.81v0.34H41.52z
	 M36.38,18.24c0.06,0.06,1.45,1.43,1.45,2.75v0.36c0,1.32-1.39,2.69-1.45,2.75l-0.24,0.23L35.9,24.1c-0.06-0.06-1.45-1.43-1.45-2.75
	v-0.36c0-1.32,1.39-2.69,1.45-2.75l0.24-0.23L36.38,18.24z M35.13,11.42h2.02v6.05h-2.02V11.42z"/>
<path class="st4" d="M32.84,18.55l-7.12,9.56v3.47v0.67h20.84v-0.67v-3.47l-7.03-9.54l-1.03-1.4v-2.22v-4.2h2.02V7.38h-3.03h-0.67
	h-1.34H34.8h-3.03v3.36h2.02v4.2v2.33L32.84,18.55z M32.44,10.07V8.06c2.62,0,4.35,0,7.4,0v2.02h-7.4V10.07z M34.46,10.75h3.36v6.65
	l8.07,10.95v3.25c-2.22,0-17.24,0-19.5,0v-3.25l8.07-10.84V10.75z"/>
<path class="st3" d="M39.84,8.06h-7.4v2.02h7.4V8.06z M35.81,9.4h-2.35V8.73h2.35V9.4z"/>
<polygon class="st4" points="27.06,28.56 27.06,30.92 45.22,30.92 45.22,28.56 36.48,28.56 35.81,28.56 "/>
<path class="st4" d="M35.81,26.55v2.02h0.67v-2.02C36.44,26.55,35.77,26.55,35.81,26.55z"/>
<path class="st3" d="M36.96,25.87h1.2c1.35,0,2.53-1.22,2.74-2.35h-1.18C38.45,23.52,37.11,24.15,36.96,25.87z"/>
<path class="st4" d="M39.71,22.85c-2.09,0-3.57,1.32-3.57,3.36c0-2.04-1.33-3.36-3.41-3.36h-1.96v0.34c0,1.52,1.61,3.36,3.52,3.36
	h1.53c0.04,0,0.71,0,0.67,0h1.68c1.91,0,3.36-1.84,3.36-3.36v-0.34H39.71z M34.28,25.87c-1.35,0-2.53-1.22-2.74-2.35h1.18
	c1.26,0,2.6,0.63,2.75,2.35H34.28z M38.16,25.87h-1.2c0.15-1.73,1.49-2.35,2.75-2.35h1.18C40.69,24.65,39.51,25.87,38.16,25.87z"/>
<path class="st3" d="M32.73,23.52h-1.18c0.2,1.13,1.38,2.35,2.74,2.35h1.2C35.33,24.15,33.99,23.52,32.73,23.52z"/>
<rect x="33.45" y="8.73" class="st4" width="2.35" height="0.67"/>
<rect x="27.8" y="26.04" transform="matrix(0.581 -0.8139 0.8139 0.581 -9.2164 34.8554)" class="st4" width="2.89" height="0.67"/>
<rect x="35.13" y="11.42" class="st4" width="2.02" height="6.05"/>
<path class="st3" d="M35.13,20.99v0.36c0,0.71,0.6,1.55,1.01,2.02c0.36-0.41,1.01-1.26,1.01-2.02v-0.36c0-0.71-0.6-1.55-1.01-2.02
	C35.78,19.38,35.13,20.23,35.13,20.99z"/>
<path class="st4" d="M35.91,18.24c-0.06,0.06-1.45,1.43-1.45,2.75v0.36c0,1.32,1.39,2.69,1.45,2.75l0.24,0.23l0.24-0.23
	c0.06-0.06,1.45-1.43,1.45-2.75v-0.36c0-1.32-1.39-2.69-1.45-2.75l-0.24-0.23L35.91,18.24z M37.15,20.99v0.36
	c0,0.75-0.65,1.6-1.01,2.02c-0.41-0.47-1.01-1.31-1.01-2.02v-0.36c0-0.75,0.65-1.6,1.01-2.02C36.55,19.44,37.15,20.28,37.15,20.99z"
	/>
</svg>
