<?xml version="1.0" encoding="utf-8"?>
<!-- Generator: Adobe Illustrator 26.0.3, SVG Export Plug-In . SVG Version: 6.00 Build 0)  -->
<svg version="1.1" id="Layer_1" xmlns="http://www.w3.org/2000/svg" xmlns:xlink="http://www.w3.org/1999/xlink" x="0px" y="0px"
	 viewBox="0 0 50 50" style="enable-background:new 0 0 50 50;" xml:space="preserve">
<style type="text/css">
	.st0{fill:#FFFFFF;stroke:#1C75BC;stroke-width:0.5;stroke-miterlimit:10;}
	.st1{fill:#1C75BC;stroke:#1C75BC;stroke-width:0.5;stroke-miterlimit:10;}
	.st2{fill:#1C75BC;}
</style>
<g>
	<path class="st0" d="M44.59,31.1c0-0.01,0-0.02,0-0.03c0-2.62-2-4.75-4.47-4.75c-0.01,0-0.01,0-0.02,0c-0.17,0-0.32-0.1-0.37-0.26
		c-0.59-1.78-1.84-3.24-3.43-4.05c-0.15-0.08-0.23-0.24-0.2-0.41c0.05-0.29,0.08-0.59,0.08-0.9c0-2.62-2-4.75-4.47-4.75
		c-0.56,0-1.1,0.11-1.59,0.31c-0.23,0.09-0.49-0.06-0.52-0.3c-0.28-2.34-2.16-4.15-4.44-4.15c-1.82,0-3.38,1.15-4.08,2.8
		c-0.08,0.2-0.31,0.28-0.51,0.19c-0.84-0.4-1.76-0.62-2.73-0.62c-3.71,0-6.71,3.19-6.71,7.13c0,0.4,0.03,0.79,0.09,1.17
		c0.03,0.19-0.08,0.37-0.27,0.42c-1.93,0.53-3.36,2.39-3.36,4.6c0,0.26,0.02,0.51,0.06,0.76c0.04,0.24-0.15,0.46-0.4,0.44
		c-0.09-0.01-0.19-0.01-0.28-0.01c-2.47,0-4.47,2.13-4.47,4.75s2,4.75,4.47,4.75c0.11,0,0.22-0.01,0.34-0.01
		c0.03,0.01,0.07,0.01,0.1,0.01h36.73c1.85,0,3.35-1.6,3.35-3.56l0,0C47.5,32.82,46.23,31.33,44.59,31.1z"/>
	<g>
		<path class="st1" d="M8.21,36.28c0-2.62,2-4.75,4.47-4.75c0.27,0,0.53,0.03,0.78,0.07c-0.1-0.4-0.16-0.82-0.16-1.26
			c0-2.34,1.59-4.28,3.69-4.68c-0.1-0.49-0.15-1-0.15-1.52c0-3.94,3-7.13,6.71-7.13c1.12,0,2.17,0.29,3.1,0.81
			c0.45-1.35,1.45-2.42,2.72-2.91c-0.63-1.82-2.27-3.12-4.2-3.12c-1.82,0-3.38,1.15-4.08,2.8c-0.08,0.2-0.31,0.28-0.51,0.19
			c-0.84-0.4-1.76-0.62-2.73-0.62c-3.71,0-6.71,3.19-6.71,7.13c0,0.4,0.03,0.79,0.09,1.17c0.03,0.19-0.08,0.37-0.27,0.42
			c-1.93,0.53-3.36,2.39-3.36,4.6c0,0.26,0.02,0.51,0.06,0.76c0.04,0.24-0.15,0.46-0.4,0.44c-0.09-0.01-0.19-0.01-0.28-0.01
			c-2.47,0-4.47,2.13-4.47,4.75s2,4.75,4.47,4.75c0.11,0,0.22-0.01,0.34-0.01c0.03,0.01,0.07,0.01,0.1,0.01h1.17
			C8.34,37.61,8.21,36.96,8.21,36.28z"/>
	</g>
	<circle class="st2" cx="22.11" cy="20.43" r="1.66"/>
	<circle class="st2" cx="32" cy="20" r="1.66"/>
	<circle class="st2" cx="20.05" cy="27.22" r="1.66"/>
	<circle class="st2" cx="26.95" cy="23.78" r="1.66"/>
	<circle class="st2" cx="34.05" cy="26.22" r="1.66"/>
	<circle class="st2" cx="26.95" cy="30.78" r="1.66"/>
	<circle class="st2" cx="18.82" cy="34.54" r="1.66"/>
	<circle class="st2" cx="38.72" cy="31.11" r="1.66"/>
	<circle class="st2" cx="33" cy="35" r="1.66"/>
	<circle class="st2" cx="12" cy="35" r="1.66"/>
</g>
</svg>
