<?xml version="1.0" encoding="utf-8"?>
<!-- Generator: Adobe Illustrator 26.0.3, SVG Export Plug-In . SVG Version: 6.00 Build 0)  -->
<svg version="1.1" id="Layer_1" xmlns="http://www.w3.org/2000/svg" xmlns:xlink="http://www.w3.org/1999/xlink" x="0px" y="0px"
	 viewBox="0 0 512 512" style="enable-background:new 0 0 512 512;" xml:space="preserve">
<style type="text/css">
	.st0{fill:#8DC63F;}
	.st1{fill:#231F20;}
	.st2{fill:#C49A6C;}
	.st3{fill:#8B5E3C;}
	.st4{fill:#603913;}
	.st5{fill:#FFFFFF;}
</style>
<path class="st0" d="M303.02,184.18c-10.01,5.29-16.68,14.42-19.17,24.61c10.11,4.23,21.96,4.08,32.41-1.43
	c10.01-5.29,16.68-14.42,19.17-24.61C325.32,178.51,313.47,178.66,303.02,184.18z"/>
<path class="st0" d="M264.69,184.18c10.01,5.29,16.68,14.42,19.17,24.61c-10.11,4.23-21.96,4.08-32.41-1.43
	c-10.01-5.29-16.68-14.42-19.17-24.61C242.39,178.51,254.24,178.66,264.69,184.18z"/>
<path class="st0" d="M297.86,150.1c-7.32,3.86-12.19,10.53-14,17.99c7.39,3.09,16.05,2.98,23.68-1.05
	c7.32-3.86,12.19-10.53,14-17.99C314.16,145.96,305.49,146.07,297.86,150.1z"/>
<path class="st0" d="M269.85,150.1c7.32,3.86,12.19,10.53,14,17.99c-7.39,3.09-16.05,2.98-23.68-1.05
	c-7.32-3.86-12.19-10.53-14-17.99C253.55,145.96,262.21,146.07,269.85,150.1z"/>
<path class="st0" d="M303.02,223.85c-10.01,5.29-16.68,14.42-19.17,24.61c10.11,4.23,21.96,4.08,32.41-1.43
	c10.01-5.29,16.68-14.42,19.17-24.61C325.32,218.19,313.47,218.34,303.02,223.85z"/>
<path class="st0" d="M264.69,223.85c10.01,5.29,16.68,14.42,19.17,24.61c-10.11,4.23-21.96,4.08-32.41-1.43
	c-10.01-5.29-16.68-14.42-19.17-24.61C242.39,218.19,254.24,218.34,264.69,223.85z"/>
<rect x="281.85" y="168.02" class="st1" width="4" height="126.95"/>
<path class="st0" d="M410.8,184.18c-10.01,5.29-16.68,14.42-19.17,24.61c10.11,4.23,21.96,4.08,32.41-1.43
	c10.01-5.29,16.68-14.42,19.17-24.61C433.1,178.51,421.25,178.66,410.8,184.18z"/>
<path class="st0" d="M372.47,184.18c10.01,5.29,16.68,14.42,19.17,24.61c-10.11,4.23-21.96,4.08-32.41-1.43
	c-10.01-5.29-16.68-14.42-19.17-24.61C350.16,178.51,362.02,178.66,372.47,184.18z"/>
<path class="st0" d="M405.64,150.1c-7.32,3.86-12.19,10.53-14,17.99c7.39,3.09,16.05,2.98,23.68-1.05
	c7.32-3.86,12.19-10.53,14-17.99C421.93,145.96,413.27,146.07,405.64,150.1z"/>
<path class="st0" d="M377.63,150.1c7.32,3.86,12.19,10.53,14,17.99c-7.39,3.09-16.05,2.98-23.68-1.05
	c-7.32-3.86-12.19-10.53-14-17.99C361.33,145.96,369.99,146.07,377.63,150.1z"/>
<path class="st0" d="M410.8,223.85c-10.01,5.29-16.68,14.42-19.17,24.61c10.11,4.23,21.96,4.08,32.41-1.43
	c10.01-5.29,16.68-14.42,19.17-24.61C433.1,218.19,421.25,218.34,410.8,223.85z"/>
<path class="st0" d="M372.47,223.85c10.01,5.29,16.68,14.42,19.17,24.61c-10.11,4.23-21.96,4.08-32.41-1.43
	c-10.01-5.29-16.68-14.42-19.17-24.61C350.16,218.19,362.02,218.34,372.47,223.85z"/>
<rect x="389.63" y="168.02" class="st1" width="4" height="126.95"/>
<path class="st2" d="M252.94,283.36c-71.14-13.83-184.71-37.33-184.71-37.33v18c0,0,113.57,23.49,184.71,37.33
	c107.99,21,190.33-7.33,190.33-7.33v-18C443.26,276.03,360.93,304.36,252.94,283.36z"/>
<path class="st3" d="M252.94,301.36c-71.14-13.83-184.71-37.33-184.71-37.33v98.66c0,0,82.33,28.33,190.33,7.33
	c71.14-13.83,184.71-49.84,184.71-49.84v-26.14C443.26,294.03,360.93,322.36,252.94,301.36z"/>
<path class="st1" d="M227.41,324.36c-0.8,0-1.58,0.14-2.3,0.38l-71.2-113.61H69.81v4h81.89l70.11,111.88
	c-1.03,1.25-1.65,2.86-1.65,4.61c0,4.01,3.25,7.25,7.25,7.25s7.25-3.25,7.25-7.25S231.42,324.36,227.41,324.36z"/>
<path class="st4" d="M68.22,362.69v35.7c0,20.81,16.87,37.68,37.68,37.68h299.68c20.81,0,37.68-16.87,37.68-37.68v-78.21
	c0,0-113.57,36.01-184.71,49.84C150.56,391.01,68.22,362.69,68.22,362.69z"/>
<path class="st0" d="M109.35,204.47c-11.86,0-22.87-5.89-29.46-15.74s-7.82-22.28-3.29-33.24l32.75-79.19l32.75,79.19
	c4.53,10.96,3.3,23.38-3.29,33.24S121.21,204.47,109.35,204.47z"/>
<g>
	<circle class="st5" cx="414.51" cy="410.34" r="7.5"/>
	<circle class="st5" cx="360.05" cy="389.42" r="7.5"/>
	<circle class="st5" cx="405.32" cy="364.56" r="7.5"/>
</g>
<g>
	<circle class="st5" cx="106.16" cy="344.95" r="7.5"/>
	<circle class="st5" cx="151.44" cy="320.08" r="7.5"/>
	<circle class="st5" cx="96.97" cy="299.16" r="7.5"/>
</g>
<g>
</g>
<g>
</g>
<g>
</g>
<g>
</g>
<g>
</g>
<g>
</g>
</svg>
