<?xml version="1.0" encoding="utf-8"?>
<!-- Generator: Adobe Illustrator 26.0.2, SVG Export Plug-In . SVG Version: 6.00 Build 0)  -->
<svg version="1.1" id="Layer_1" xmlns="http://www.w3.org/2000/svg" xmlns:xlink="http://www.w3.org/1999/xlink" x="0px" y="0px"
	 viewBox="0 0 1800 250" style="enable-background:new 0 0 1800 250;" xml:space="preserve">
<style type="text/css">
	.st0{fill:#FFFFFF;}
	.st1{fill:none;stroke:#FFFFFF;stroke-width:40;stroke-miterlimit:10;}
	.st2{fill:none;stroke:#FFFFFF;stroke-width:3;stroke-linecap:round;stroke-linejoin:round;stroke-miterlimit:10;}
</style>
<g>
	<g>
		<g>
			<path class="st0" d="M265.52,56.53h30.6c22.7,0,38.2,14,38.2,35c0,21-15.5,35-38.2,35h-30.6V56.53z M295.52,115.53
				c15.6,0,25.7-9.5,25.7-24c0-14.5-10.1-24-25.7-24h-17v48H295.52z"/>
			<path class="st0" d="M348.12,56.53h13v70h-13V56.53z"/>
			<path class="st0" d="M427.82,90.73h12.3v27.9c-7.3,5.9-17.5,8.9-27.4,8.9c-21.7,0-37.7-15.1-37.7-36c0-20.9,16-36,37.9-36
				c11.7,0,21.5,3.9,28.1,11.4l-8.2,8c-5.5-5.5-11.8-8-19.3-8c-14.9,0-25.4,10.1-25.4,24.6c0,14.2,10.5,24.6,25.3,24.6
				c5,0,9.9-1,14.4-3.6V90.73z"/>
			<path class="st0" d="M457.22,56.53h13v70h-13V56.53z"/>
			<path class="st0" d="M503.32,67.53h-23.2v-11h59.4v11h-23.2v59h-13V67.53z"/>
			<path class="st0" d="M591.22,110.33h-35l-6.9,16.2h-13.4l31.5-70h12.8l31.6,70h-13.6L591.22,110.33z M586.92,100.13l-13.2-30.6
				l-13.1,30.6H586.92z"/>
			<path class="st0" d="M620.71,56.53h13v59h36.6v11h-49.6V56.53z"/>
			<path class="st0" d="M721.21,67.43v21.3h33.8v11h-33.8v26.8h-13v-70h51.1v10.9H721.21z"/>
			<path class="st0" d="M814.32,110.33h-35l-6.9,16.2h-13.4l31.5-70h12.8l31.6,70h-13.6L814.32,110.33z M810.02,100.13l-13.2-30.6
				l-13.1,30.6H810.02z"/>
			<path class="st0" d="M889.62,126.54l-14.3-20.5c-0.9,0.1-1.8,0.1-2.7,0.1h-15.8v20.4h-13v-70h28.8c18.4,0,29.8,9.4,29.8,24.9
				c0,10.6-5.4,18.4-14.9,22.1l16.1,23H889.62z M872.01,67.53h-15.2v27.9h15.2c11.4,0,17.3-5.2,17.3-14
				C889.32,72.63,883.42,67.53,872.01,67.53z"/>
			<path class="st0" d="M981.21,126.54l-0.1-46.4l-23,38.4h-5.8l-23-37.8v45.8h-12.4v-70h10.7l27.8,46.4l27.3-46.4h10.7l0.1,70
				H981.21z"/>
			<path class="st0" d="M1012.41,56.53h13v70h-13V56.53z"/>
			<path class="st0" d="M1106.51,56.53v70h-10.7l-38.6-47.4v47.4h-12.9v-70h10.7l38.6,47.4v-47.4H1106.51z"/>
			<path class="st0" d="M1173.11,90.73h12.3v27.9c-7.3,5.9-17.5,8.9-27.4,8.9c-21.7,0-37.7-15.1-37.7-36c0-20.9,16-36,37.9-36
				c11.7,0,21.5,3.9,28.1,11.4l-8.2,8c-5.5-5.5-11.8-8-19.3-8c-14.9,0-25.4,10.1-25.4,24.6c0,14.2,10.5,24.6,25.3,24.6
				c5,0,9.9-1,14.4-3.6V90.73z"/>
			<path class="st0" d="M1288.71,81.43c0,15.4-11.4,24.9-29.8,24.9h-15.8v20.2h-13v-70h28.8
				C1277.31,56.53,1288.71,65.93,1288.71,81.43z M1275.61,81.43c0-8.8-5.9-13.9-17.3-13.9h-15.2v27.8h15.2
				C1269.71,95.33,1275.61,90.23,1275.61,81.43z"/>
			<path class="st0" d="M1301.71,56.53h13v59h36.6v11h-49.6V56.53z"/>
			<path class="st0" d="M1407.51,110.33h-35l-6.9,16.2h-13.4l31.5-70h12.8l31.6,70h-13.6L1407.51,110.33z M1403.21,100.13
				l-13.2-30.6l-13.1,30.6H1403.21z"/>
			<path class="st0" d="M1447.71,67.53h-23.2v-11h59.4v11h-23.2v59h-13V67.53z"/>
			<path class="st0" d="M1506.71,67.43v21.3h33.8v11h-33.8v26.8h-13v-70h51.1v10.9H1506.71z"/>
			<path class="st0" d="M1551.6,91.53c0-20.7,16-36,37.7-36s37.7,15.2,37.7,36c0,20.8-16,36-37.7,36S1551.6,112.23,1551.6,91.53z
				 M1613.91,91.53c0-14.3-10.5-24.6-24.6-24.6s-24.6,10.3-24.6,24.6c0,14.3,10.5,24.6,24.6,24.6S1613.91,105.83,1613.91,91.53z"/>
			<path class="st0" d="M1686.61,126.54l-14.3-20.5c-0.9,0.1-1.8,0.1-2.7,0.1h-15.8v20.4h-13v-70h28.8c18.4,0,29.8,9.4,29.8,24.9
				c0,10.6-5.4,18.4-14.9,22.1l16.1,23H1686.61z M1669.01,67.53h-15.2v27.9h15.2c11.4,0,17.3-5.2,17.3-14
				C1686.31,72.63,1680.41,67.53,1669.01,67.53z"/>
			<path class="st0" d="M1778.21,126.54l-0.1-46.4l-23,38.4h-5.8l-23-37.8v45.8h-12.4v-70h10.7l27.8,46.4l27.3-46.4h10.7l0.1,70
				H1778.21z"/>
		</g>
		<g>
			<path class="st0" d="M293.1,193.21l-8.23-11.8c-0.52,0.06-1.04,0.06-1.55,0.06h-9.09v11.74h-7.48v-40.29h16.58
				c10.59,0,17.15,5.41,17.15,14.33c0,6.1-3.11,10.59-8.58,12.72l9.27,13.24H293.1z M282.98,159.25h-8.75v16.06h8.75
				c6.56,0,9.96-2.99,9.96-8.06C292.93,162.19,289.54,159.25,282.98,159.25z"/>
			<path class="st0" d="M334.94,183.89H314.8l-3.97,9.32h-7.71l18.13-40.29h7.37l18.19,40.29h-7.83L334.94,183.89z M332.47,178.02
				l-7.6-17.61l-7.54,17.61H332.47z"/>
			<path class="st0" d="M351.92,152.92h17.61c13.07,0,21.99,8.06,21.99,20.14s-8.92,20.14-21.99,20.14h-17.61V152.92z
				 M369.19,186.88c8.98,0,14.79-5.47,14.79-13.81s-5.81-13.81-14.79-13.81h-9.78v27.63H369.19z"/>
			<path class="st0" d="M399.46,152.92h7.48v40.29h-7.48V152.92z"/>
			<path class="st0" d="M414.94,173.07c0-12.03,9.21-20.72,21.58-20.72c6.56,0,12.2,2.36,15.94,6.73l-4.83,4.55
				c-2.94-3.17-6.56-4.72-10.76-4.72c-8.35,0-14.39,5.87-14.39,14.16s6.04,14.16,14.39,14.16c4.2,0,7.83-1.55,10.76-4.78l4.83,4.6
				c-3.74,4.37-9.38,6.73-16,6.73C424.15,193.79,414.94,185.1,414.94,173.07z"/>
			<path class="st0" d="M484.92,183.89h-20.14l-3.97,9.32h-7.71l18.13-40.29h7.37l18.19,40.29h-7.83L484.92,183.89z M482.45,178.02
				l-7.6-17.61l-7.54,17.61H482.45z"/>
			<path class="st0" d="M501.9,152.92h7.48v33.96h21.07v6.33H501.9V152.92z"/>
			<path class="st0" d="M579.77,172.61h7.08v16.06c-4.2,3.4-10.07,5.12-15.77,5.12c-12.49,0-21.7-8.69-21.7-20.72
				s9.21-20.72,21.81-20.72c6.73,0,12.37,2.25,16.17,6.56l-4.72,4.6c-3.17-3.17-6.79-4.6-11.11-4.6c-8.58,0-14.62,5.81-14.62,14.16
				c0,8.17,6.04,14.16,14.56,14.16c2.88,0,5.7-0.58,8.29-2.07V172.61z"/>
			<path class="st0" d="M623.04,193.21l-8.23-11.8c-0.52,0.06-1.04,0.06-1.55,0.06h-9.09v11.74h-7.48v-40.29h16.58
				c10.59,0,17.15,5.41,17.15,14.33c0,6.1-3.11,10.59-8.58,12.72l9.27,13.24H623.04z M612.91,159.25h-8.75v16.06h8.75
				c6.56,0,9.96-2.99,9.96-8.06C622.87,162.19,619.48,159.25,612.91,159.25z"/>
			<path class="st0" d="M635.88,173.07c0-11.91,9.21-20.72,21.7-20.72s21.7,8.75,21.7,20.72s-9.21,20.72-21.7,20.72
				S635.88,184.98,635.88,173.07z M671.73,173.07c0-8.23-6.04-14.16-14.16-14.16c-8.12,0-14.16,5.93-14.16,14.16
				s6.04,14.16,14.16,14.16C665.69,187.23,671.73,181.3,671.73,173.07z"/>
			<path class="st0" d="M744.83,152.92l-13.35,40.29h-7.94l-9.96-29.81l-10.13,29.81h-8l-13.35-40.29h7.77l10.01,30.62l10.42-30.62
				h6.91l10.19,30.79l10.3-30.79H744.83z"/>
			<path class="st0" d="M759.38,159.25h-13.35v-6.33h34.19v6.33h-13.35v33.96h-7.48V159.25z"/>
			<path class="st0" d="M821.66,152.92v40.29h-7.48v-17.27h-20.84v17.27h-7.48v-40.29h7.48v16.63h20.84v-16.63H821.66z"/>
			<path class="st0" d="M844.96,188.95l2.59-5.81c3.22,2.59,8.35,4.43,13.3,4.43c6.27,0,8.92-2.24,8.92-5.24
				c0-8.69-23.94-2.99-23.94-17.96c0-6.5,5.18-12.03,16.23-12.03c4.83,0,9.9,1.27,13.41,3.57l-2.36,5.81
				c-3.63-2.13-7.6-3.17-11.11-3.17c-6.22,0-8.75,2.42-8.75,5.47c0,8.58,23.89,2.99,23.89,17.78c0,6.45-5.24,11.97-16.29,11.97
				C854.57,193.79,848.3,191.83,844.96,188.95z"/>
			<path class="st0" d="M881.68,173.07c0-11.91,9.21-20.72,21.7-20.72c12.49,0,21.7,8.75,21.7,20.72s-9.21,20.72-21.7,20.72
				C890.89,193.79,881.68,184.98,881.68,173.07z M917.54,173.07c0-8.23-6.04-14.16-14.16-14.16s-14.16,5.93-14.16,14.16
				s6.04,14.16,14.16,14.16S917.54,181.3,917.54,173.07z"/>
			<path class="st0" d="M933.01,152.92h7.48v33.96h21.07v6.33h-28.55V152.92z"/>
			<path class="st0" d="M966.57,175.66v-22.73h7.48v22.45c0,8.29,3.74,11.86,10.25,11.86s10.19-3.57,10.19-11.86v-22.45h7.37v22.73
				c0,11.74-6.62,18.13-17.61,18.13C973.19,193.79,966.57,187.4,966.57,175.66z"/>
			<path class="st0" d="M1019.75,159.25h-13.35v-6.33h34.19v6.33h-13.35v33.96h-7.48V159.25z"/>
			<path class="st0" d="M1046.22,152.92h7.48v40.29h-7.48V152.92z"/>
			<path class="st0" d="M1061.7,173.07c0-11.91,9.21-20.72,21.7-20.72c12.49,0,21.7,8.75,21.7,20.72s-9.21,20.72-21.7,20.72
				C1070.91,193.79,1061.7,184.98,1061.7,173.07z M1097.56,173.07c0-8.23-6.04-14.16-14.16-14.16c-8.12,0-14.16,5.93-14.16,14.16
				s6.04,14.16,14.16,14.16C1091.51,187.23,1097.56,181.3,1097.56,173.07z"/>
			<path class="st0" d="M1148.83,152.92v40.29h-6.16l-22.22-27.28v27.28h-7.42v-40.29h6.16l22.22,27.28v-27.28H1148.83z"/>
			<path class="st0" d="M1156.26,188.95l2.59-5.81c3.22,2.59,8.35,4.43,13.3,4.43c6.27,0,8.92-2.24,8.92-5.24
				c0-8.69-23.94-2.99-23.94-17.96c0-6.5,5.18-12.03,16.23-12.03c4.83,0,9.9,1.27,13.41,3.57l-2.36,5.81
				c-3.63-2.13-7.6-3.17-11.11-3.17c-6.22,0-8.75,2.42-8.75,5.47c0,8.58,23.89,2.99,23.89,17.78c0,6.45-5.24,11.97-16.29,11.97
				C1165.87,193.79,1159.59,191.83,1156.26,188.95z"/>
		</g>
		<line class="st1" x1="1230" y1="176.38" x2="1791" y2="176.38"/>
	</g>
	<g>
		<path class="st0" d="M136.13,206.67c-3.59,0.48-7.23,0.71-10.91,0.71c-3.82,0-7.6-0.26-11.33-0.77c3.4-9.95,5.33-21.18,5.33-33.08
			c0-7.69-0.8-15.11-2.28-22.08c3.2-2.98,5.93-6.46,8.07-10.31c2.14,3.85,4.87,7.33,8.07,10.31c-1.49,6.97-2.29,14.39-2.29,22.08
			C130.78,185.46,132.72,196.71,136.13,206.67z"/>
		<g>
			<path class="st0" d="M240.17,76.34c-6.3-14.89-15.31-28.25-26.78-39.73s-24.84-20.49-39.73-26.79C158.24,3.31,141.87,0,125,0
				c-16.87,0-33.24,3.31-48.66,9.83c-14.89,6.3-28.25,15.31-39.73,26.79C25.14,48.09,16.12,61.46,9.83,76.34
				C3.31,91.76,0,108.13,0,125s3.31,33.24,9.83,48.66c6.3,14.89,15.31,28.25,26.79,39.73c11.48,11.48,24.85,20.49,39.73,26.79
				C91.76,246.69,108.13,250,125,250c16.87,0,33.24-3.31,48.66-9.83c14.89-6.3,28.25-15.31,39.73-26.79s20.49-24.84,26.78-39.73
				c6.52-15.42,9.83-31.79,9.83-48.66S246.69,91.76,240.17,76.34z M125,242.19C60.28,242.19,7.81,189.72,7.81,125
				S60.28,7.81,125,7.81S242.19,60.28,242.19,125S189.72,242.19,125,242.19z"/>
			<path class="st0" d="M223.66,83.37c-5.38-12.72-13.08-24.15-22.89-33.96c-9.81-9.81-21.24-17.51-33.96-22.89
				c-13.18-5.57-27.17-8.4-41.59-8.4c-14.42,0-28.41,2.83-41.59,8.4C70.91,31.9,59.48,39.6,49.67,49.41
				c-9.81,9.81-17.51,21.24-22.89,33.96c-5.58,13.18-8.4,27.17-8.4,41.59c0,14.42,2.83,28.41,8.4,41.59
				c5.38,12.72,13.08,24.15,22.89,33.96c9.81,9.81,21.24,17.51,33.96,22.89c13.18,5.57,27.17,8.4,41.59,8.4
				c14.42,0,28.41-2.83,41.59-8.4c12.72-5.38,24.15-13.08,33.96-22.89c9.81-9.81,17.51-21.24,22.89-33.96
				c5.57-13.18,8.4-27.17,8.4-41.59C232.07,110.54,229.24,96.55,223.66,83.37z M125.22,223.99c-54.69,0-99.03-44.34-99.03-99.03
				c0-54.7,44.34-99.03,99.03-99.03s99.03,44.34,99.03,99.03C224.25,179.65,179.91,223.99,125.22,223.99z"/>
			<path class="st0" d="M125.22,34.72c-49.84,0-90.24,40.4-90.24,90.24c0,49.84,40.4,90.24,90.24,90.24
				c49.84,0,90.24-40.4,90.24-90.24C215.46,75.12,175.06,34.72,125.22,34.72z M183.51,183.24c-7.57,7.57-16.39,13.52-26.2,17.67
				c-6.8,2.88-13.89,4.8-21.17,5.76c-3.59,0.48-7.23,0.71-10.91,0.71c-3.82,0-7.6-0.26-11.33-0.77c-7.14-0.98-14.08-2.89-20.75-5.71
				c-9.82-4.15-18.63-10.09-26.2-17.67c-7.57-7.57-13.52-16.39-17.67-26.2c-4.29-10.16-6.47-20.95-6.47-32.08
				c0-11.13,2.18-21.92,6.47-32.08c4.15-9.82,10.1-18.63,17.67-26.2c7.57-7.57,16.39-13.52,26.2-17.67
				c10.16-4.29,20.95-6.47,32.08-6.47c11.13,0,21.93,2.18,32.08,6.47c9.82,4.15,18.63,10.1,26.2,17.67
				c7.57,7.57,13.52,16.39,17.67,26.2c4.3,10.16,6.48,20.95,6.48,32.08c0,11.13-2.18,21.93-6.48,32.08
				C197.02,166.86,191.08,175.67,183.51,183.24z"/>
		</g>
		<g id="top_1_">
			<path class="st2" d="M166.46,79.6c-1.64-0.2-3.31-0.3-5.01-0.3c-0.97,0-1.94,0.03-2.9,0.1c-2.88,0.2-5.67,0.69-8.35,1.44
				c-3.15,0.88-6.15,2.12-8.95,3.68c-6.61,3.67-12.11,9.08-15.89,15.61c-0.12,0.22-0.25,0.43-0.37,0.65
				c-0.12-0.22-0.24-0.43-0.37-0.65c-3.78-6.54-9.29-11.95-15.89-15.61c-2.8-1.55-5.8-2.8-8.95-3.68c-2.68-0.75-5.48-1.24-8.35-1.44
				c-0.96-0.07-1.92-0.1-2.9-0.1c-1.69,0-3.36,0.1-5.01,0.3c2.07-21.08,19.84-37.54,41.46-37.54S164.39,58.52,166.46,79.6z"/>
			<path class="st2" d="M158.56,79.4c-2.88,0.2-5.67,0.69-8.35,1.44c-3.15,0.88-6.15,2.12-8.95,3.68
				c-6.61,3.67-12.11,9.08-15.89,15.61c-0.12,0.22-0.25,0.43-0.37,0.65c-0.12-0.22-0.24-0.43-0.37-0.65
				c-3.78-6.54-9.29-11.95-15.89-15.61c-2.8-1.55-5.8-2.8-8.95-3.68c-2.68-0.75-5.48-1.24-8.35-1.44C93.62,62.8,107.81,50,125,50
				S156.38,62.8,158.56,79.4z"/>
			<path class="st2" d="M150.21,80.83c-3.15,0.88-6.15,2.12-8.95,3.68c-6.61,3.67-12.11,9.08-15.89,15.61
				c-0.12,0.22-0.25,0.43-0.37,0.65c-0.12-0.22-0.24-0.43-0.37-0.65c-3.78-6.54-9.29-11.95-15.89-15.61c-2.8-1.55-5.8-2.8-8.95-3.68
				C101.28,68.23,112,58.46,125,58.46S148.72,68.23,150.21,80.83z"/>
			<path class="st2" d="M141.28,83.85c0,0.22-0.01,0.44-0.01,0.66c-6.61,3.67-12.11,9.08-15.89,15.61c-0.12,0-0.24,0.01-0.37,0.01
				s-0.25,0-0.37-0.01c-3.78-6.54-9.29-11.95-15.89-15.61c-0.01-0.22-0.01-0.44-0.01-0.66c0-8.99,7.29-16.28,16.28-16.28
				S141.28,74.86,141.28,83.85z"/>
			<circle class="st2" cx="125" cy="83.85" r="7.81"/>
		</g>
		<g id="right_1_">
			<path class="st2" d="M203.12,120.96c0,23.01-18.65,41.67-41.67,41.67c-10.97,0-20.95-4.24-28.39-11.17
				c-3.2-2.98-5.93-6.46-8.07-10.31c0.22-0.4,0.44-0.8,0.65-1.21c0.08-0.14,0.15-0.29,0.22-0.43c0.05-0.09,0.09-0.18,0.14-0.27
				c0.1-0.21,0.21-0.42,0.3-0.64c0.1-0.22,0.2-0.44,0.3-0.66c0.1-0.22,0.2-0.44,0.29-0.66c0.1-0.22,0.19-0.44,0.28-0.67
				c0.09-0.22,0.18-0.45,0.27-0.67c0.08-0.2,0.16-0.4,0.23-0.61c0.09-0.24,0.17-0.48,0.26-0.73c0.07-0.18,0.13-0.36,0.18-0.54
				c0.08-0.22,0.15-0.45,0.22-0.67c0.12-0.39,0.24-0.79,0.35-1.18c0.13-0.45,0.24-0.9,0.35-1.36c0,0,0,0,0,0.01
				c0.07,0.22,0.13,0.43,0.2,0.65c0.14,0.43,0.29,0.86,0.44,1.28c0.08,0.21,0.15,0.41,0.23,0.61c0.34,0.87,0.71,1.72,1.12,2.55
				c0.01,0.01,0.01,0.02,0.02,0.03c0.06,0.13,0.13,0.26,0.2,0.39c0.12,0.24,0.25,0.49,0.38,0.73c0.09,0.17,0.18,0.34,0.28,0.5
				c0.03,0.05,0.05,0.09,0.08,0.14c0.08,0.15,0.17,0.3,0.26,0.45c0.09,0.16,0.19,0.32,0.28,0.47c0.07,0.12,0.14,0.23,0.21,0.35
				c0.29,0.46,0.59,0.92,0.9,1.36c0.08,0.11,0.15,0.22,0.23,0.33c0.42,0.59,0.85,1.16,1.31,1.72c0.07,0.09,0.14,0.17,0.21,0.26
				c0.07,0.08,0.14,0.17,0.21,0.25c0.3,0.36,0.61,0.71,0.93,1.06c0.05,0.06,0.11,0.12,0.16,0.18c0.09,0.1,0.18,0.2,0.28,0.3
				c0.09,0.09,0.18,0.19,0.27,0.28c0.1,0.1,0.2,0.2,0.3,0.3c0.09,0.09,0.18,0.18,0.27,0.27c0.01,0.01,0.03,0.03,0.04,0.04
				c0.09,0.09,0.18,0.17,0.27,0.26c0.1,0.09,0.2,0.18,0.3,0.28c0.08,0.07,0.15,0.14,0.23,0.21c0.42,0.39,0.86,0.76,1.3,1.13
				c0.1,0.08,0.2,0.16,0.3,0.25c0.01,0.01,0.02,0.02,0.03,0.03c0.1,0.08,0.2,0.16,0.3,0.24c0.11,0.08,0.21,0.17,0.32,0.25
				c0.1,0.08,0.21,0.16,0.31,0.23c0.22,0.17,0.45,0.33,0.67,0.49c0.11,0.08,0.22,0.16,0.33,0.23c0.46,0.32,0.93,0.63,1.41,0.93
				c0.1,0.06,0.2,0.12,0.3,0.18c0.16,0.1,0.33,0.2,0.5,0.3c0.16,0.09,0.31,0.18,0.47,0.27c0.08,0.05,0.17,0.09,0.25,0.14
				c0.12,0.07,0.24,0.14,0.37,0.2c0.23,0.12,0.47,0.25,0.71,0.37c0.19,0.1,0.38,0.19,0.57,0.28c0,0,0.01,0,0.01,0.01
				c0.2,0.1,0.4,0.19,0.6,0.28c0.2,0.09,0.41,0.18,0.61,0.27c0.41,0.18,0.83,0.35,1.25,0.51c0.19,0.08,0.38,0.15,0.57,0.22
				c0.05,0.02,0.1,0.04,0.15,0.05c0.18,0.07,0.36,0.13,0.55,0.19c0.21,0.08,0.43,0.15,0.65,0.21c0.21,0.07,0.41,0.13,0.62,0.19
				c0.01,0,0.02,0.01,0.03,0.01c0.22,0.07,0.44,0.13,0.66,0.19c0.22,0.06,0.44,0.12,0.66,0.17c0.18,0.05,0.36,0.09,0.54,0.13
				c0.27,0.06,0.53,0.12,0.8,0.18c0.19,0.04,0.38,0.08,0.57,0.11c0.05,0.01,0.1,0.02,0.15,0.03c0.21,0.04,0.43,0.08,0.64,0.11
				c0.24,0.04,0.47,0.08,0.71,0.11c0.22,0.03,0.45,0.06,0.67,0.09c0.26,0.03,0.52,0.06,0.78,0.09c0.2,0.02,0.39,0.04,0.59,0.05
				c0.39,0.03,0.79,0.06,1.19,0.08c0.13,0.01,0.25,0.01,0.37,0.02c0.04,0,0.08,0.01,0.12,0.01c0.16,0.01,0.31,0.01,0.47,0.01
				c0.24,0.01,0.48,0.01,0.72,0.01c18.7,0,33.85-15.16,33.85-33.85c0-16.99-12.51-31.05-28.83-33.48c-1.64-0.24-3.32-0.37-5.03-0.37
				c-0.94,0-1.87,0.04-2.78,0.11c-3.09,0.25-6.07,0.92-8.87,1.95c-9.1,3.33-16.36,10.46-19.89,19.46c-0.32,0.81-0.6,1.63-0.85,2.47
				c-0.18-0.75-0.38-1.49-0.6-2.22c-0.86-2.89-2.03-5.65-3.47-8.23c0.12-0.22,0.24-0.43,0.37-0.65c3.78-6.54,9.29-11.95,15.89-15.61
				c2.8-1.55,5.8-2.8,8.95-3.68c2.68-0.75,5.48-1.24,8.35-1.44c0.96-0.07,1.92-0.1,2.9-0.1c1.69,0,3.36,0.1,5.01,0.3
				C187.12,82.07,203.12,99.65,203.12,120.96z"/>
			<circle class="st2" cx="161.46" cy="121.09" r="7.81"/>
			<path class="st2" d="M166.49,87.61c-1.64-0.24-3.32-0.37-5.03-0.37c-0.94,0-1.87,0.04-2.78,0.11c-3.09,0.25-6.07,0.92-8.87,1.95
				c-9.1,3.33-16.36,10.46-19.89,19.46c-0.32,0.81-0.6,1.63-0.85,2.47c0.47,1.98,0.81,4.02,0.99,6.1c0.1,1.2,0.16,2.41,0.16,3.63
				c0,1.39-0.07,2.77-0.2,4.13c-0.19,1.96-0.52,3.88-0.98,5.75c0,0,0,0,0,0.01c0.07,0.22,0.13,0.43,0.2,0.65
				c0.14,0.43,0.29,0.86,0.44,1.28c0.08,0.21,0.15,0.41,0.23,0.61c0.34,0.87,0.71,1.72,1.12,2.55c0.01,0.01,0.01,0.02,0.02,0.03
				c0.06,0.13,0.13,0.26,0.2,0.39c0.12,0.24,0.25,0.49,0.38,0.73c0.09,0.17,0.18,0.34,0.28,0.5c0.03,0.05,0.05,0.09,0.08,0.14
				c0.08,0.15,0.17,0.3,0.26,0.45c0.09,0.16,0.19,0.32,0.28,0.47c0.07,0.12,0.14,0.23,0.21,0.35c0.29,0.46,0.59,0.92,0.9,1.36
				c0.08,0.11,0.15,0.22,0.23,0.33c0.42,0.59,0.85,1.16,1.31,1.72c0.07,0.09,0.14,0.17,0.21,0.26c0.07,0.08,0.14,0.17,0.21,0.25
				c0.3,0.36,0.61,0.71,0.93,1.06c0.05,0.06,0.11,0.12,0.16,0.18c0.09,0.1,0.18,0.2,0.28,0.3c0.09,0.09,0.18,0.19,0.27,0.28
				c0.1,0.1,0.2,0.2,0.3,0.3c0.09,0.09,0.18,0.18,0.27,0.27c0.01,0.01,0.03,0.03,0.04,0.04c0.09,0.09,0.18,0.17,0.27,0.26
				c0.1,0.09,0.2,0.18,0.3,0.28c0.08,0.07,0.15,0.14,0.23,0.21c0.42,0.39,0.86,0.76,1.3,1.13c0.1,0.08,0.2,0.16,0.3,0.25
				c0.01,0.01,0.02,0.02,0.03,0.03c0.1,0.08,0.2,0.16,0.3,0.24c0.11,0.08,0.21,0.17,0.32,0.25c0.1,0.08,0.21,0.16,0.31,0.23
				c0.22,0.17,0.45,0.33,0.67,0.49c0.11,0.08,0.22,0.16,0.33,0.23c0.46,0.32,0.93,0.63,1.41,0.93c0.1,0.06,0.2,0.12,0.3,0.18
				c0.16,0.1,0.33,0.2,0.5,0.3c0.16,0.09,0.31,0.18,0.47,0.27c0.08,0.05,0.17,0.09,0.25,0.14c0.12,0.07,0.24,0.14,0.37,0.2
				c0.23,0.12,0.47,0.25,0.71,0.37c0.19,0.1,0.38,0.19,0.57,0.28c0,0,0.01,0,0.01,0.01c0.2,0.1,0.4,0.19,0.6,0.28
				c0.2,0.09,0.41,0.18,0.61,0.27c0.41,0.18,0.83,0.35,1.25,0.51c0.19,0.08,0.38,0.15,0.57,0.22c0.05,0.02,0.1,0.04,0.15,0.05
				c0.18,0.07,0.36,0.13,0.55,0.19c0.21,0.08,0.43,0.15,0.65,0.21c0.21,0.07,0.41,0.13,0.62,0.19c0.01,0,0.02,0.01,0.03,0.01
				c0.22,0.07,0.44,0.13,0.66,0.19c0.22,0.06,0.44,0.12,0.66,0.17c0.18,0.05,0.36,0.09,0.54,0.13c0.27,0.06,0.53,0.12,0.8,0.18
				c0.19,0.04,0.38,0.08,0.57,0.11c0.05,0.01,0.1,0.02,0.15,0.03c0.21,0.04,0.43,0.08,0.64,0.11c0.24,0.04,0.47,0.08,0.71,0.11
				c0.22,0.03,0.45,0.06,0.67,0.09c0.26,0.03,0.52,0.06,0.78,0.09c0.2,0.02,0.39,0.04,0.59,0.05c0.39,0.03,0.79,0.06,1.19,0.08
				c0.13,0.01,0.25,0.01,0.37,0.02c0.04,0,0.08,0.01,0.12,0.01c0.16,0.01,0.31,0.01,0.47,0.01c0.24,0.01,0.48,0.01,0.72,0.01
				c18.7,0,33.85-15.16,33.85-33.85C195.31,104.1,182.8,90.04,166.49,87.61z M161.46,146.48c-13.09,0-23.86-9.9-25.24-22.62
				c-0.1-0.91-0.15-1.83-0.15-2.77c0-1.87,0.2-3.69,0.59-5.45c2.14-9.83,9.98-17.53,19.88-19.47c1.59-0.31,3.24-0.48,4.92-0.48
				c1.15,0,2.28,0.08,3.39,0.22v0c12.42,1.66,22,12.29,22,25.16C186.85,135.12,175.48,146.48,161.46,146.48z"/>
			<circle class="st2" cx="161.46" cy="121.09" r="7.81"/>
			<path class="st2" d="M164.85,95.93L164.85,95.93c-1.11-0.15-2.24-0.23-3.39-0.23c-1.68,0-3.33,0.16-4.92,0.48
				c-9.9,1.94-17.74,9.64-19.88,19.47c-0.39,1.76-0.59,3.58-0.59,5.45c0,0.93,0.05,1.86,0.15,2.77
				c1.38,12.72,12.15,22.62,25.24,22.62c14.02,0,25.39-11.37,25.39-25.39C186.85,108.22,177.27,97.59,164.85,95.93z M161.46,137.37
				c-8.99,0-16.28-7.29-16.28-16.28c0-0.31,0.01-0.62,0.03-0.92c0.47-8.39,7.29-15.08,15.73-15.34v0c0.17-0.01,0.35-0.01,0.52-0.01
				c8.99,0,16.28,7.29,16.28,16.28S170.45,137.37,161.46,137.37z"/>
			<circle class="st2" cx="161.46" cy="121.09" r="7.81"/>
			<path class="st2" d="M161.46,104.82c-0.17,0-0.35,0-0.52,0.01v0c-8.44,0.27-15.26,6.96-15.73,15.34
				c-0.02,0.3-0.03,0.61-0.03,0.92c0,8.99,7.29,16.28,16.28,16.28c8.99,0,16.28-7.29,16.28-16.28S170.45,104.82,161.46,104.82z
				 M161.46,128.91c-4.32,0-7.81-3.5-7.81-7.81s3.5-7.81,7.81-7.81c4.32,0,7.81,3.5,7.81,7.81S165.77,128.91,161.46,128.91z"/>
			<circle class="st2" cx="161.46" cy="121.09" r="7.81"/>
			<circle class="st2" cx="161.46" cy="121.09" r="7.81"/>
		</g>
		<g id="left_1_">
			<circle class="st2" cx="88.54" cy="121.09" r="7.81"/>
			<path class="st2" d="M130.05,117.33c-0.18-2.08-0.51-4.12-0.99-6.1c-0.18-0.75-0.38-1.49-0.6-2.22
				c-0.86-2.89-2.03-5.65-3.47-8.23c-0.12-0.22-0.24-0.43-0.37-0.65c-3.78-6.54-9.29-11.95-15.89-15.61c-2.8-1.55-5.8-2.8-8.95-3.68
				c-2.68-0.75-5.48-1.24-8.35-1.44c-0.96-0.07-1.92-0.1-2.9-0.1c-1.69,0-3.36,0.1-5.01,0.3c-20.65,2.47-36.66,20.05-36.66,41.37
				c0,23.01,18.65,41.67,41.67,41.67c10.97,0,20.95-4.24,28.39-11.17c3.2-2.98,5.93-6.46,8.07-10.31c0.22-0.4,0.44-0.8,0.65-1.21
				c0.08-0.14,0.15-0.29,0.22-0.43c0.05-0.09,0.09-0.18,0.14-0.27c0.1-0.21,0.21-0.42,0.3-0.64c0.1-0.22,0.2-0.44,0.3-0.66
				c0.1-0.22,0.2-0.44,0.29-0.66c0.09-0.22,0.18-0.44,0.28-0.67c0.09-0.22,0.18-0.45,0.27-0.67c0.08-0.2,0.15-0.4,0.23-0.61
				c0.09-0.24,0.17-0.48,0.26-0.73c0.07-0.18,0.13-0.36,0.18-0.54c0.08-0.22,0.15-0.45,0.22-0.67c0.12-0.39,0.24-0.79,0.35-1.18
				c0.13-0.45,0.24-0.9,0.35-1.36c0.46-1.87,0.78-3.79,0.98-5.75c0.14-1.36,0.2-2.73,0.2-4.13
				C130.21,119.74,130.16,118.53,130.05,117.33z M122.14,125.29c-0.23,1.9-0.63,3.76-1.17,5.54c-0.53,1.77-1.2,3.47-1.99,5.1
				c-1.18,2.42-2.65,4.68-4.35,6.73c-6.21,7.5-15.59,12.28-26.09,12.28c-18.7,0-33.85-15.16-33.85-33.85
				c0-16.99,12.51-31.05,28.83-33.48c1.64-0.24,3.32-0.37,5.03-0.37c0.94,0,1.87,0.04,2.78,0.11c3.09,0.25,6.07,0.92,8.87,1.95
				c9.1,3.34,16.36,10.46,19.88,19.47c0.32,0.81,0.6,1.63,0.85,2.47c0.62,2.05,1.06,4.17,1.28,6.36c0.12,1.15,0.18,2.32,0.18,3.5
				C122.4,122.52,122.31,123.92,122.14,125.29z"/>
			<path class="st2" d="M122.22,117.6c-0.22-2.19-0.66-4.32-1.28-6.36c-0.25-0.84-0.54-1.66-0.85-2.47
				c-3.52-9.01-10.79-16.13-19.88-19.47c-2.8-1.03-5.78-1.7-8.87-1.95c-0.92-0.07-1.85-0.11-2.78-0.11c-1.71,0-3.39,0.13-5.03,0.37
				c-16.31,2.43-28.83,16.49-28.83,33.48c0,18.7,15.16,33.85,33.85,33.85c10.5,0,19.88-4.78,26.09-12.28
				c1.7-2.05,3.16-4.31,4.35-6.73c0.8-1.63,1.47-3.33,1.99-5.1c0.54-1.79,0.93-3.64,1.17-5.54c0.17-1.38,0.26-2.78,0.26-4.2
				C122.4,119.91,122.34,118.74,122.22,117.6z M113.78,123.86c-1.38,12.72-12.15,22.62-25.24,22.62
				c-14.02,0-25.39-11.37-25.39-25.39c0-12.87,9.58-23.51,22-25.16v0c1.11-0.15,2.24-0.22,3.39-0.22c1.68,0,3.33,0.16,4.92,0.48
				c9.9,1.94,17.74,9.64,19.88,19.47c0.39,1.76,0.59,3.58,0.59,5.45C113.93,122.03,113.88,122.95,113.78,123.86z"/>
			<circle class="st2" cx="88.54" cy="121.09" r="7.81"/>
			<path class="st2" d="M113.34,115.65c-2.14-9.83-9.98-17.53-19.88-19.47c-1.59-0.31-3.24-0.48-4.92-0.48
				c-1.15,0-2.28,0.08-3.39,0.22v0c-12.42,1.66-22,12.29-22,25.16c0,14.02,11.37,25.39,25.39,25.39c13.09,0,23.86-9.9,25.24-22.62
				c0.1-0.91,0.15-1.83,0.15-2.77C113.93,119.22,113.73,117.4,113.34,115.65z M88.54,137.37c-8.99,0-16.28-7.29-16.28-16.28
				s7.29-16.28,16.28-16.28c0.17,0,0.35,0,0.52,0.01v0c8.44,0.27,15.26,6.96,15.73,15.34c0.02,0.3,0.03,0.61,0.03,0.92
				C104.82,130.08,97.53,137.37,88.54,137.37z"/>
			<circle class="st2" cx="88.54" cy="121.09" r="7.81"/>
			<path class="st2" d="M104.79,120.17c-0.47-8.39-7.29-15.08-15.73-15.34v0c-0.17-0.01-0.35-0.01-0.52-0.01
				c-8.99,0-16.28,7.29-16.28,16.28s7.29,16.28,16.28,16.28s16.28-7.29,16.28-16.28C104.82,120.78,104.81,120.48,104.79,120.17z
				 M88.54,128.91c-4.32,0-7.81-3.5-7.81-7.81s3.5-7.81,7.81-7.81c4.32,0,7.81,3.5,7.81,7.81S92.86,128.91,88.54,128.91z"/>
			<circle class="st2" cx="88.54" cy="121.09" r="7.81"/>
			<circle class="st2" cx="88.54" cy="121.09" r="7.81"/>
		</g>
	</g>
</g>
<g>
</g>
<g>
</g>
<g>
</g>
<g>
</g>
<g>
</g>
<g>
</g>
<g>
</g>
<g>
</g>
<g>
</g>
<g>
</g>
<g>
</g>
<g>
</g>
<g>
</g>
<g>
</g>
<g>
</g>
</svg>
